oac-lab2/Decoder7/simulation/qsim/TopDE.msim.vcd
$comment
	File created using the following command:
		vcd file TopDE.msim.vcd -direction
$end
$date
	Mon Oct 19 14:12:35 2020
$end
$version
	ModelSim Version 10.5b
$end
$timescale
	1ps
$end

$scope module decoder7_vlg_vec_tst $end
$var reg 1 ! Clk $end
$var reg 4 " In [3:0] $end
$var wire 1 # Out [6] $end
$var wire 1 $ Out [5] $end
$var wire 1 % Out [4] $end
$var wire 1 & Out [3] $end
$var wire 1 ' Out [2] $end
$var wire 1 ( Out [1] $end
$var wire 1 ) Out [0] $end

$scope module i1 $end
$var wire 1 * gnd $end
$var wire 1 + vcc $end
$var wire 1 , unknown $end
$var tri1 1 - devclrn $end
$var tri1 1 . devpor $end
$var tri1 1 / devoe $end
$var wire 1 0 ~QUARTUS_CREATED_GND~I_combout $end
$var wire 1 1 Clk~input_o $end
$var wire 1 2 Clk~inputCLKENA0_outclk $end
$var wire 1 3 In[0]~input2 $end
$var wire 1 4 In[1]~input2 $end
$var wire 1 5 In[2]~input2 $end
$var wire 1 6 In[3]~input2 $end
$var wire 1 7 WideOr6~0_combout $end
$var wire 1 8 Out[0]~reg0_q $end
$var wire 1 9 WideOr5~0_combout $end
$var wire 1 : Out[1]~reg0_q $end
$var wire 1 ; WideOr4~0_combout $end
$var wire 1 < Out[2]~reg0_q $end
$var wire 1 = WideOr3~0_combout $end
$var wire 1 > Out[3]~reg0_q $end
$var wire 1 ? WideOr2~0_combout $end
$var wire 1 @ Out[4]~reg0_q $end
$var wire 1 A WideOr1~0_combout $end
$var wire 1 B Out[5]~reg0_q $end
$var wire 1 C WideOr0~0_combout $end
$var wire 1 D Out[6]~reg0_q $end
$var wire 1 E Rin [3] $end
$var wire 1 F Rin [2] $end
$var wire 1 G Rin [1] $end
$var wire 1 H Rin [0] $end
$upscope $end
$upscope $end
$enddefinitions $end
#0
$dumpvars
1!
b0 "
0)
0(
0'
0&
0%
0$
0#
0*
1+
x,
1-
1.
1/
00
11
12
03
04
05
06
07
08
09
0:
0;
0<
0=
0>
0?
0@
0A
0B
1C
0D
0H
0G
0F
0E
$end
#10000
0!
01
02
#20000
b1 "
1!
13
11
12
1H
1D
1#
1A
1?
1=
17
#30000
0!
01
02
#40000
b11 "
b10 "
1!
03
14
11
12
1G
0H
1B
1@
1>
18
1)
1&
1%
1$
0C
0?
0=
1;
07
#50000
0!
01
02
#60000
b11 "
1!
13
11
12
1H
0D
0@
0>
1<
08
0)
1'
0&
0%
0#
1?
0;
#70000
0!
01
02
#80000
b111 "
b101 "
b100 "
1!
03
04
15
11
12
1F
0G
0H
1@
0<
0'
1%
0A
1=
17
#90000
0!
01
02
#100000
b101 "
1!
13
11
12
1H
0B
1>
18
1)
1&
0$
0=
19
07
#110000
0!
01
02
#120000
b111 "
b110 "
1!
03
14
11
12
1G
0H
0>
1:
08
0)
1(
0&
0?
#130000
0!
01
02
#140000
b111 "
1!
13
11
12
1H
0@
0%
1C
1A
1?
1=
09
#150000
0!
01
02
#160000
b1111 "
b1011 "
b1001 "
b1000 "
1!
03
04
05
16
11
12
1E
0F
0G
0H
1D
1B
1@
1>
0:
0(
1&
1%
1$
1#
0C
0A
0?
0=
#170000
0!
01
02
#180000
b1001 "
1!
13
11
12
1H
0D
0B
0@
0>
0&
0%
0$
0#
1?
#190000
0!
01
02
#200000
b1011 "
b1010 "
1!
03
14
11
12
1G
0H
1@
1%
0?
1=
#210000
0!
01
02
#220000
b1011 "
1!
13
11
12
1H
0@
1>
1&
0%
0=
19
17
#230000
0!
01
02
#240000
b1111 "
b1101 "
b1100 "
1!
03
04
15
11
12
1F
0G
0H
0>
1:
18
1)
1(
0&
1C
1;
07
#250000
0!
01
02
#260000
b1101 "
1!
13
11
12
1H
1D
1<
08
0)
1'
1#
0C
1A
0;
09
17
#270000
0!
01
02
#280000
b1111 "
b1110 "
1!
03
14
11
12
1G
0H
0D
1B
0<
0:
18
1)
0(
0'
1$
0#
0A
1;
19
07
#290000
0!
01
02
#300000
b1111 "
1!
13
11
12
1H
0B
1<
1:
08
0)
1(
1'
0$
1=
#310000
0!
01
02
